…
# Join the Data

<!-- -------------------------------------------------- -->

To get a sense of our task, let’s take a glimpse at our two data
sources.

``` r
## NOTE: No need to change this just execute
df_pop
```

    ## # A tibble: 3,220 × 7
    ##    Geography      `Geographic Area Name`   Estim…¹ Annot…² Margi…³ Annot…⁴ ...7 
    ##    <chr>          <chr>                      <dbl> <chr>   <chr>   <chr>   <lgl>
    ##  1 0500000US01001 Autauga County, Alabama    55200 null    *****   *****   NA   
    ##  2 0500000US01003 Baldwin County, Alabama   208107 null    *****   *****   NA   
    ##  3 0500000US01005 Barbour County, Alabama    25782 null    *****   *****   NA   
    ##  4 0500000US01007 Bibb County, Alabama       22527 null    *****   *****   NA   
    ##  5 0500000US01009 Blount County, Alabama     57645 null    *****   *****   NA   
    ##  6 0500000US01011 Bullock County, Alabama    10352 null    *****   *****   NA   
    ##  7 0500000US01013 Butler County, Alabama     20025 null    *****   *****   NA   
    ##  8 0500000US01015 Calhoun County, Alabama   115098 null    *****   *****   NA   
    ##  9 0500000US01017 Chambers County, Alabama   33826 null    *****   *****   NA   
    ## 10 0500000US01019 Cherokee County, Alabama   25853 null    *****   *****   NA   
    ## # … with 3,210 more rows, and abbreviated variable names ¹​`Estimate!!Total`,
    ## #   ²​`Annotation of Estimate!!Total`, ³​`Margin of Error!!Total`,
    ## #   ⁴​`Annotation of Margin of Error!!Total`

``` r
df_covid
```

    ## # A tibble: 2,502,832 × 6
    ##    date       county      state      fips  cases deaths
    ##    <date>     <chr>       <chr>      <chr> <dbl>  <dbl>
    ##  1 2020-01-21 Snohomish   Washington 53061     1      0
    ##  2 2020-01-22 Snohomish   Washington 53061     1      0
    ##  3 2020-01-23 Snohomish   Washington 53061     1      0
    ##  4 2020-01-24 Cook        Illinois   17031     1      0
    ##  5 2020-01-24 Snohomish   Washington 53061     1      0
    ##  6 2020-01-25 Orange      California 06059     1      0
    ##  7 2020-01-25 Cook        Illinois   17031     1      0
    ##  8 2020-01-25 Snohomish   Washington 53061     1      0
    ##  9 2020-01-26 Maricopa    Arizona    04013     1      0
    ## 10 2020-01-26 Los Angeles California 06037     1      0
    ## # … with 2,502,822 more rows
…
### **q3** Process the `id` column of `df_pop` to create a `fips` column.

``` r
## TASK: Create a `fips` column by extracting the county code
df_q3 <- 
  df_pop %>% 
  mutate(fips = substr(Geography, nchar(Geography) - 4, nchar(Geography)))
df_q3
```

    ## # A tibble: 3,220 × 8
    ##    Geography      Geographic Area …¹ Estim…² Annot…³ Margi…⁴ Annot…⁵ ...7  fips 
    ##    <chr>          <chr>                <dbl> <chr>   <chr>   <chr>   <lgl> <chr>
    ##  1 0500000US01001 Autauga County, A…   55200 null    *****   *****   NA    01001
    ##  2 0500000US01003 Baldwin County, A…  208107 null    *****   *****   NA    01003
    ##  3 0500000US01005 Barbour County, A…   25782 null    *****   *****   NA    01005
    ##  4 0500000US01007 Bibb County, Alab…   22527 null    *****   *****   NA    01007
    ##  5 0500000US01009 Blount County, Al…   57645 null    *****   *****   NA    01009
    ##  6 0500000US01011 Bullock County, A…   10352 null    *****   *****   NA    01011
    ##  7 0500000US01013 Butler County, Al…   20025 null    *****   *****   NA    01013
    ##  8 0500000US01015 Calhoun County, A…  115098 null    *****   *****   NA    01015
    ##  9 0500000US01017 Chambers County, …   33826 null    *****   *****   NA    01017
    ## 10 0500000US01019 Cherokee County, …   25853 null    *****   *****   NA    01019
    ## # … with 3,210 more rows, and abbreviated variable names
    ## #   ¹​`Geographic Area Name`, ²​`Estimate!!Total`,
    ## #   ³​`Annotation of Estimate!!Total`, ⁴​`Margin of Error!!Total`,
    ## #   ⁵​`Annotation of Margin of Error!!Total`
…
