…
    ## Rows: 25 Columns: 1
    ## ── Column specification ────────────────────────────────────────────────────────
    ## Delimiter: ","
    ## dbl (1): strength
    ## 
    ## ℹ Use `spec()` to retrieve the full column specification for this data.
    ## ℹ Specify the column types or set `show_col_types = FALSE` to quiet this message.

``` r
df_samples
```

    ## # A tibble: 25 × 1
    ##    strength
    ##       <dbl>
    ##  1   39484.
    ##  2   39812.
    ##  3   40052.
    ##  4   40519.
    ##  5   40045.
    ##  6   40160.
    ##  7   40094.
    ##  8   39674.
    ##  9   40144.
    ## 10   39865.
    ## # … with 15 more rows
…
