…
    ## Rows: 3219 Columns: 7
    ## ── Column specification ────────────────────────────────────────────────────────
    ## Delimiter: ","
    ## chr (5): id, geographic_area_name, population_moe, X5, X6
    ## dbl (1): population_estimate
    ## lgl (1): X7
    ## 
    ## ℹ Use `spec()` to retrieve the full column specification for this data.
    ## ℹ Specify the column types or set `show_col_types = FALSE` to quiet this message.

``` r
df_pop
```

    ## # A tibble: 3,219 × 7
    ##    id             geographic_area_name     populatio…¹ popul…² X5    X6    X7   
    ##    <chr>          <chr>                          <dbl> <chr>   <chr> <chr> <lgl>
    ##  1 0500000US01003 Baldwin County, Alabama       208107 null    ***** ***** NA   
    ##  2 0500000US01005 Barbour County, Alabama        25782 null    ***** ***** NA   
    ##  3 0500000US01007 Bibb County, Alabama           22527 null    ***** ***** NA   
    ##  4 0500000US01009 Blount County, Alabama         57645 null    ***** ***** NA   
    ##  5 0500000US01011 Bullock County, Alabama        10352 null    ***** ***** NA   
    ##  6 0500000US01013 Butler County, Alabama         20025 null    ***** ***** NA   
    ##  7 0500000US01015 Calhoun County, Alabama       115098 null    ***** ***** NA   
    ##  8 0500000US01017 Chambers County, Alabama       33826 null    ***** ***** NA   
    ##  9 0500000US01019 Cherokee County, Alabama       25853 null    ***** ***** NA   
    ## 10 0500000US01021 Chilton County, Alabama        43930 null    ***** ***** NA   
    ## # … with 3,209 more rows, and abbreviated variable names ¹​population_estimate,
    ## #   ²​population_moe
…
    ## Rows: 3220 Columns: 483
    ## ── Column specification ────────────────────────────────────────────────────────
    ## Delimiter: ","
    ## chr (306): Geography, Geographic Area Name, Annotation of Margin of Error!!N...
    ## dbl (176): Estimate!!Number!!HOUSEHOLD INCOME BY RACE AND HISPANIC OR LATINO...
    ## lgl   (1): ...483
    ## 
    ## ℹ Use `spec()` to retrieve the full column specification for this data.
    ## ℹ Specify the column types or set `show_col_types = FALSE` to quiet this message.

``` r
df_income
```

    ## # A tibble: 3,220 × 243
    ##    id    Geogr…¹ Estim…² Margi…³ Estim…⁴ Margi…⁵ Estim…⁶ Margi…⁷ Estim…⁸ Margi…⁹
    ##    <chr> <chr>     <dbl>   <dbl>   <dbl>   <dbl>   <dbl>   <dbl>   <dbl>   <dbl>
    ##  1 0500… Autaug…   21115     383   16585     363    4085     205      34      33
    ##  2 0500… Baldwi…   78622    1183   69544    1042    6425     500     460     171
    ##  3 0500… Barbou…    9186     280    4729     211    4135     248       9      16
    ##  4 0500… Bibb C…    6840     321    5588     346    1172     200       0      22
    ##  5 0500… Blount…   20600     396   20054     417     190      98      24      27
    ##  6 0500… Bulloc…    3609     196     881     119    2681     212      44      52
    ##  7 0500… Butler…    6708     274    3821     173    2752     207       2       4
    ##  8 0500… Calhou…   45033     683   33820     559    9514     435     152      64
    ##  9 0500… Chambe…   13516     372    7953     296    5268     235      54      42
    ## 10 0500… Cherok…   10606     370    9953     356     477      90      33      32
    ## # … with 3,210 more rows, 233 more variables:
    ## #   `Estimate!!Number!!HOUSEHOLD INCOME BY RACE AND HISPANIC OR LATINO ORIGIN OF HOUSEHOLDER!!Households!!One race--!!Asian` <dbl>,
    ## #   `Margin of Error!!Number MOE!!HOUSEHOLD INCOME BY RACE AND HISPANIC OR LATINO ORIGIN OF HOUSEHOLDER!!Households!!One race--!!Asian` <dbl>,
    ## #   `Estimate!!Number!!HOUSEHOLD INCOME BY RACE AND HISPANIC OR LATINO ORIGIN OF HOUSEHOLDER!!Households!!One race--!!Native Hawaiian and Other Pacific Islander` <dbl>,
    ## #   `Margin of Error!!Number MOE!!HOUSEHOLD INCOME BY RACE AND HISPANIC OR LATINO ORIGIN OF HOUSEHOLDER!!Households!!One race--!!Native Hawaiian and Other Pacific Islander` <dbl>,
    ## #   `Estimate!!Number!!HOUSEHOLD INCOME BY RACE AND HISPANIC OR LATINO ORIGIN OF HOUSEHOLDER!!Households!!One race--!!Some other race` <dbl>,
    ## #   `Margin of Error!!Number MOE!!HOUSEHOLD INCOME BY RACE AND HISPANIC OR LATINO ORIGIN OF HOUSEHOLDER!!Households!!One race--!!Some other race` <dbl>, …
…
    ## Warning in mask$eval_all_mutate(quo): NAs introduced by coercion

    ## Warning in mask$eval_all_mutate(quo): NAs introduced by coercion

    ## Warning in mask$eval_all_mutate(quo): NAs introduced by coercion

    ## Warning in mask$eval_all_mutate(quo): NAs introduced by coercion

    ## Warning in mask$eval_all_mutate(quo): NAs introduced by coercion

``` r
df_q3
```

    ## # A tibble: 16,100 × 5
    ##    id             geographic_area_name    category          income_est…¹ incom…²
    ##    <chr>          <chr>                   <chr>                    <dbl>   <dbl>
    ##  1 0500000US01001 Autauga County, Alabama 2-person families        64947    6663
    ##  2 0500000US01001 Autauga County, Alabama 3-person families        80172   14181
    ##  3 0500000US01001 Autauga County, Alabama 4-person families        85455   10692
    ##  4 0500000US01001 Autauga County, Alabama 5-person families        88601   20739
    ##  5 0500000US01001 Autauga County, Alabama 6-person families       103787   12387
    ##  6 0500000US01003 Baldwin County, Alabama 2-person families        63975    2297
    ##  7 0500000US01003 Baldwin County, Alabama 3-person families        79390    8851
    ##  8 0500000US01003 Baldwin County, Alabama 4-person families        88458    5199
    ##  9 0500000US01003 Baldwin County, Alabama 5-person families        91259    7011
    ## 10 0500000US01003 Baldwin County, Alabama 6-person families        69609   23175
    ## # … with 16,090 more rows, and abbreviated variable names ¹​income_estimate,
    ## #   ²​income_moe
…
